user,password,target,amount
tool_generator_000001,testingpw,http://192.168.100.10/moodle,100
tool_generator_000002,testingpw,http://192.168.100.10/moodle,100
tool_generator_000003,testingpw,http://192.168.100.10/moodle,100
tool_generator_000004,testingpw,http://192.168.100.10/moodle,100
tool_generator_000005,testingpw,http://192.168.100.10/moodle,100
tool_generator_000006,testingpw,http://192.168.100.10/moodle,100
tool_generator_000007,testingpw,http://192.168.100.10/moodle,100
tool_generator_000008,testingpw,http://192.168.100.10/moodle,100
tool_generator_000009,testingpw,http://192.168.100.10/moodle,100
tool_generator_000010,testingpw,http://192.168.100.10/moodle,100
tool_generator_000011,testingpw,http://192.168.100.10/moodle,100
tool_generator_000012,testingpw,http://192.168.100.10/moodle,100
